{
  "images" : [
    {
      "idiom" : "ipad",
      "filename" : "catalouge_1000 copy.jpg",
      "scale" : "1x"
    },
    {
      "idiom" : "ipad",
      "filename" : "catalouge_1000.jpg",
      "scale" : "2x"
    }
  ],
  "info" : {
    "version" : 1,
    "author" : "xcode"
  }
}